{
	"info": {
		"_postman_id": "cb529e17-90aa-467d-8e1a-0fc43e58a9dd",
		"name": "Rent service api",
		"schema": "https://schema.getpostman.com/json/collection/v2.1.0/collection.json",
		"_exporter_id": "17281219"
	},
	"item": [
		{
			"name": "Product",
			"item": [
				{
					"name": "index",
					"request": {
						"method": "GET",
						"header": [],
						"url": {
							"raw": "{{rent-api}}/product",
							"host": [
								"{{rent-api}}"
							],
							"path": [
								"product"
							]
						}
					},
					"response": []
				},
				{
					"name": "buy",
					"request": {
						"auth": {
							"type": "bearer",
							"bearer": [
								{
									"key": "token",
									"value": "eyJ0eXAiOiJKV1QiLCJhbGciOiJIUzI1NiJ9.eyJpc3MiOiJodHRwOi8vcmVudF9zZXJ2aWNlLnRlc3QvYXBpL2F1dGgvbG9naW4iLCJpYXQiOjE3MDUzNTkwNzAsImV4cCI6MTcwNTU3NTA3MCwibmJmIjoxNzA1MzU5MDcwLCJqdGkiOiJ2N3lPMTRuc2JiNjNyeXVwIiwic3ViIjoiMSIsInBydiI6IjIzYmQ1Yzg5NDlmNjAwYWRiMzllNzAxYzQwMDg3MmRiN2E1OTc2ZjcifQ.vMgf7OrxQRs94O1VcDWHaoXtYPGhhABSHkTiHqZ1DaM",
									"type": "string"
								}
							]
						},
						"method": "POST",
						"header": [
							{
								"key": "Accept-Encoding",
								"value": "application/json",
								"type": "text"
							},
							{
								"key": "Accept",
								"value": "application/json",
								"type": "text"
							}
						],
						"url": {
							"raw": "{{rent-api}}/product/buy/3",
							"host": [
								"{{rent-api}}"
							],
							"path": [
								"product",
								"buy",
								"3"
							]
						}
					},
					"response": []
				},
				{
					"name": "Rent",
					"request": {
						"method": "POST",
						"header": [],
						"url": {
							"raw": "{{rent-api}}/product/rent/1",
							"host": [
								"{{rent-api}}"
							],
							"path": [
								"product",
								"rent",
								"1"
							]
						}
					},
					"response": []
				}
			]
		},
		{
			"name": "User",
			"item": [
				{
					"name": "Bought products",
					"request": {
						"auth": {
							"type": "bearer",
							"bearer": [
								{
									"key": "token",
									"value": "eyJ0eXAiOiJKV1QiLCJhbGciOiJIUzI1NiJ9.eyJpc3MiOiJodHRwOi8vcmVudF9zZXJ2aWNlLnRlc3QvYXBpL2F1dGgvbG9naW4iLCJpYXQiOjE3MDUzNTkwNzAsImV4cCI6MTcwNTU3NTA3MCwibmJmIjoxNzA1MzU5MDcwLCJqdGkiOiJ2N3lPMTRuc2JiNjNyeXVwIiwic3ViIjoiMSIsInBydiI6IjIzYmQ1Yzg5NDlmNjAwYWRiMzllNzAxYzQwMDg3MmRiN2E1OTc2ZjcifQ.vMgf7OrxQRs94O1VcDWHaoXtYPGhhABSHkTiHqZ1DaM",
									"type": "string"
								}
							]
						},
						"method": "GET",
						"header": [
							{
								"key": "Accept-Encoding",
								"value": "application/json",
								"type": "text"
							},
							{
								"key": "Accept",
								"value": "application/json",
								"type": "text"
							}
						],
						"url": {
							"raw": "{{rent-api}}/user/bought/products",
							"host": [
								"{{rent-api}}"
							],
							"path": [
								"user",
								"bought",
								"products"
							]
						}
					},
					"response": []
				},
				{
					"name": "Rent products",
					"request": {
						"auth": {
							"type": "bearer",
							"bearer": [
								{
									"key": "token",
									"value": "eyJ0eXAiOiJKV1QiLCJhbGciOiJIUzI1NiJ9.eyJpc3MiOiJodHRwOi8vcmVudF9zZXJ2aWNlLnRlc3QvYXBpL2F1dGgvbG9naW4iLCJpYXQiOjE3MDUzNTkwNzAsImV4cCI6MTcwNTU3NTA3MCwibmJmIjoxNzA1MzU5MDcwLCJqdGkiOiJ2N3lPMTRuc2JiNjNyeXVwIiwic3ViIjoiMSIsInBydiI6IjIzYmQ1Yzg5NDlmNjAwYWRiMzllNzAxYzQwMDg3MmRiN2E1OTc2ZjcifQ.vMgf7OrxQRs94O1VcDWHaoXtYPGhhABSHkTiHqZ1DaM",
									"type": "string"
								}
							]
						},
						"method": "GET",
						"header": [
							{
								"key": "Accept-Encoding",
								"value": "application/json",
								"type": "text"
							},
							{
								"key": "Accept",
								"value": "application/json",
								"type": "text"
							}
						],
						"url": {
							"raw": "{{rent-api}}/user/rent/products",
							"host": [
								"{{rent-api}}"
							],
							"path": [
								"user",
								"rent",
								"products"
							],
							"query": [
								{
									"key": "",
									"value": null,
									"disabled": true
								}
							]
						}
					},
					"response": []
				},
				{
					"name": "Renewal Rent",
					"request": {
						"auth": {
							"type": "bearer",
							"bearer": [
								{
									"key": "token",
									"value": "eyJ0eXAiOiJKV1QiLCJhbGciOiJIUzI1NiJ9.eyJpc3MiOiJodHRwOi8vcmVudF9zZXJ2aWNlLnRlc3QvYXBpL2F1dGgvbG9naW4iLCJpYXQiOjE3MDUzNTkwNzAsImV4cCI6MTcwNTU3NTA3MCwibmJmIjoxNzA1MzU5MDcwLCJqdGkiOiJ2N3lPMTRuc2JiNjNyeXVwIiwic3ViIjoiMSIsInBydiI6IjIzYmQ1Yzg5NDlmNjAwYWRiMzllNzAxYzQwMDg3MmRiN2E1OTc2ZjcifQ.vMgf7OrxQRs94O1VcDWHaoXtYPGhhABSHkTiHqZ1DaM",
									"type": "string"
								}
							]
						},
						"method": "POST",
						"header": [
							{
								"key": "Accept-Encoding",
								"value": "application/json",
								"type": "text"
							},
							{
								"key": "Accept",
								"value": "application/json",
								"type": "text"
							}
						],
						"body": {
							"mode": "raw",
							"raw": "{\n    \"rent_time_period\":12\n}",
							"options": {
								"raw": {
									"language": "json"
								}
							}
						},
						"url": {
							"raw": "{{rent-api}}/user/renewal-rent/3",
							"host": [
								"{{rent-api}}"
							],
							"path": [
								"user",
								"renewal-rent",
								"3"
							]
						}
					},
					"response": []
				},
				{
					"name": "checkStatus",
					"request": {
						"auth": {
							"type": "bearer",
							"bearer": [
								{
									"key": "token",
									"value": "eyJ0eXAiOiJKV1QiLCJhbGciOiJIUzI1NiJ9.eyJpc3MiOiJodHRwOi8vcmVudF9zZXJ2aWNlLnRlc3QvYXBpL2F1dGgvbG9naW4iLCJpYXQiOjE3MDUzODUyNDQsImV4cCI6MTcwNTM4ODg0NCwibmJmIjoxNzA1Mzg1MjQ0LCJqdGkiOiIzeDdKeHBBQ3J5Q1piOVBmIiwic3ViIjoiMiIsInBydiI6IjIzYmQ1Yzg5NDlmNjAwYWRiMzllNzAxYzQwMDg3MmRiN2E1OTc2ZjcifQ.DF9R2qvsd0-6O06sCSJcgDUysLvsIfjXCE8xa2tWMtk",
									"type": "string"
								}
							]
						},
						"method": "GET",
						"header": [
							{
								"key": "Accept-Encoding",
								"value": "application/json",
								"type": "text"
							},
							{
								"key": "Accept",
								"value": "application/json",
								"type": "text"
							}
						],
						"url": {
							"raw": "{{rent-api}}/user/product/125",
							"host": [
								"{{rent-api}}"
							],
							"path": [
								"user",
								"product",
								"125"
							]
						}
					},
					"response": []
				}
			]
		},
		{
			"name": "Auth",
			"item": [
				{
					"name": "login",
					"request": {
						"method": "POST",
						"header": [
							{
								"key": "Accept-Encoding",
								"value": "application/json",
								"type": "text"
							},
							{
								"key": "Accept",
								"value": "application/json",
								"type": "text"
							}
						],
						"body": {
							"mode": "raw",
							"raw": "{\n    \"email\":\"blake55@example.org\",\n    \"password\":\"password\"\n}",
							"options": {
								"raw": {
									"language": "json"
								}
							}
						},
						"url": {
							"raw": "{{rent-api}}/auth/login",
							"host": [
								"{{rent-api}}"
							],
							"path": [
								"auth",
								"login"
							]
						}
					},
					"response": []
				}
			]
		}
	]
}